2020-02-01T11:31:44.0443340+05:30 0HLT6RGRDOGF8:00000001 [INF] Request starting HTTP/1.1 POST http://localhost:7002/Login-Api/Master/GetUserDetails application/json; charset=utf-8  (ca22a1cb)
2020-02-01T11:31:44.1915918+05:30 0HLT6RGRDOGF8:00000001 [INF] Route matched with "{action = \"GetUserDetails\", controller = \"Master\"}". Executing controller action with signature "LoginApi.Entities.Baseclasses.Response`1[LoginApi.Entities.UserLogin] GetUserDetails(LoginApi.Entities.UserLogin)" on controller "LoginApi.Controllers.MasterController" ("LoginApi"). (122b2fdf)
2020-02-01T11:31:44.3104239+05:30 0HLT6RGRDOGF8:00000001 [INF] Executing action method "LoginApi.Controllers.MasterController.GetUserDetails (LoginApi)" - Validation state: Valid (dad538d7)
2020-02-01T11:31:45.3174137+05:30 0HLT6RGRDOGF8:00000001 [INF] Executed action method "LoginApi.Controllers.MasterController.GetUserDetails (LoginApi)", returned result "Microsoft.AspNetCore.Mvc.ObjectResult" in 1000.9267ms. (50a9e262)
2020-02-01T11:31:45.3298369+05:30 0HLT6RGRDOGF8:00000001 [INF] Executing ObjectResult, writing value of type '"LoginApi.Entities.Baseclasses.Response`1[[LoginApi.Entities.UserLogin, LoginApi, Version=1.0.0.0, Culture=neutral, PublicKeyToken=null]]"'. (8a1b66c8)
2020-02-01T11:31:45.3705907+05:30 0HLT6RGRDOGF8:00000001 [INF] Executed action "LoginApi.Controllers.MasterController.GetUserDetails (LoginApi)" in 1175.3838ms (afa2e885)
2020-02-01T11:31:45.3770389+05:30 0HLT6RGRDOGF8:00000001 [INF] Request finished in 1339.5411ms 200 application/json; charset=utf-8 (791a596a)
2020-02-01T11:31:46.9667524+05:30 0HLT6RGRDOGF8:00000002 [INF] Request starting HTTP/1.1 GET http://localhost:7002/Login-Api/Report/GetProductCustomerCount  0 (ca22a1cb)
2020-02-01T11:31:46.9690029+05:30 0HLT6RGRDOGF8:00000002 [INF] Route matched with "{action = \"GetProductCustomerCount\", controller = \"Report\"}". Executing controller action with signature "System.Collections.Generic.List`1[LoginApi.Entities.ReportCarrier] GetProductCustomerCount()" on controller "LoginApi.Controllers.ReportController" ("LoginApi"). (122b2fdf)
2020-02-01T11:31:46.9694459+05:30 0HLT6RGRDOGF8:00000002 [INF] Executing action method "LoginApi.Controllers.ReportController.GetProductCustomerCount (LoginApi)" - Validation state: Valid (dad538d7)
2020-02-01T11:31:46.9802172+05:30 0HLT6RGRDOGF8:00000002 [INF] Executed action method "LoginApi.Controllers.ReportController.GetProductCustomerCount (LoginApi)", returned result "Microsoft.AspNetCore.Mvc.ObjectResult" in 10.6644ms. (50a9e262)
2020-02-01T11:31:46.9805496+05:30 0HLT6RGRDOGF8:00000002 [INF] Executing ObjectResult, writing value of type '"System.Collections.Generic.List`1[[LoginApi.Entities.ReportCarrier, LoginApi, Version=1.0.0.0, Culture=neutral, PublicKeyToken=null]]"'. (8a1b66c8)
2020-02-01T11:31:46.9853361+05:30 0HLT6RGRDOGF8:00000002 [INF] Executed action "LoginApi.Controllers.ReportController.GetProductCustomerCount (LoginApi)" in 16.1241ms (afa2e885)
2020-02-01T11:31:46.9855619+05:30 0HLT6RGRDOGF8:00000002 [INF] Request finished in 18.9019ms 200 application/json; charset=utf-8 (791a596a)
2020-02-01T11:31:53.2177199+05:30 0HLT6RGRDOGF8:00000003 [INF] Request starting HTTP/1.1 GET http://localhost:7002/Login-Api/Master/GetProductList  0 (ca22a1cb)
2020-02-01T11:31:53.2208620+05:30 0HLT6RGRDOGF8:00000003 [INF] Route matched with "{action = \"GetProductList\", controller = \"Master\"}". Executing controller action with signature "System.Collections.Generic.List`1[LoginApi.Entities.Product] GetProductList()" on controller "LoginApi.Controllers.MasterController" ("LoginApi"). (122b2fdf)
2020-02-01T11:31:53.2210556+05:30 0HLT6RGRDOGF8:00000003 [INF] Executing action method "LoginApi.Controllers.MasterController.GetProductList (LoginApi)" - Validation state: Valid (dad538d7)
2020-02-01T11:31:53.2587513+05:30 0HLT6RGRDOGF8:00000003 [INF] Executed action method "LoginApi.Controllers.MasterController.GetProductList (LoginApi)", returned result "Microsoft.AspNetCore.Mvc.ObjectResult" in 37.5903ms. (50a9e262)
2020-02-01T11:31:53.2589379+05:30 0HLT6RGRDOGF8:00000003 [INF] Executing ObjectResult, writing value of type '"System.Collections.Generic.List`1[[LoginApi.Entities.Product, LoginApi, Version=1.0.0.0, Culture=neutral, PublicKeyToken=null]]"'. (8a1b66c8)
2020-02-01T11:31:53.2713142+05:30 0HLT6RGRDOGF8:00000003 [INF] Executed action "LoginApi.Controllers.MasterController.GetProductList (LoginApi)" in 50.2737ms (afa2e885)
2020-02-01T11:31:53.2714395+05:30 0HLT6RGRDOGF8:00000003 [INF] Request finished in 53.8122ms 200 application/json; charset=utf-8 (791a596a)
2020-02-01T11:31:53.2972360+05:30 0HLT6RGRDOGF8:00000004 [INF] Request starting HTTP/1.1 GET http://localhost:7002/Login-Api/Report/GetProductCustomerCount  0 (ca22a1cb)
2020-02-01T11:31:53.2976532+05:30 0HLT6RGRDOGF8:00000004 [INF] Route matched with "{action = \"GetProductCustomerCount\", controller = \"Report\"}". Executing controller action with signature "System.Collections.Generic.List`1[LoginApi.Entities.ReportCarrier] GetProductCustomerCount()" on controller "LoginApi.Controllers.ReportController" ("LoginApi"). (122b2fdf)
2020-02-01T11:31:53.2977707+05:30 0HLT6RGRDOGF8:00000004 [INF] Executing action method "LoginApi.Controllers.ReportController.GetProductCustomerCount (LoginApi)" - Validation state: Valid (dad538d7)
2020-02-01T11:31:53.3026417+05:30 0HLT6RGRDOGF8:00000004 [INF] Executed action method "LoginApi.Controllers.ReportController.GetProductCustomerCount (LoginApi)", returned result "Microsoft.AspNetCore.Mvc.ObjectResult" in 4.775ms. (50a9e262)
2020-02-01T11:31:53.3028456+05:30 0HLT6RGRDOGF8:00000004 [INF] Executing ObjectResult, writing value of type '"System.Collections.Generic.List`1[[LoginApi.Entities.ReportCarrier, LoginApi, Version=1.0.0.0, Culture=neutral, PublicKeyToken=null]]"'. (8a1b66c8)
2020-02-01T11:31:53.3033721+05:30 0HLT6RGRDOGF8:00000004 [INF] Executed action "LoginApi.Controllers.ReportController.GetProductCustomerCount (LoginApi)" in 5.6278ms (afa2e885)
2020-02-01T11:31:53.3035182+05:30 0HLT6RGRDOGF8:00000004 [INF] Request finished in 6.4308ms 200 application/json; charset=utf-8 (791a596a)
2020-02-01T11:36:28.7527851+05:30 0HLT6RGRDOGF9:00000001 [INF] Request starting HTTP/1.1 POST http://localhost:7002/Login-Api/Master/GetUserDetails application/json; charset=UTF-8 190 (ca22a1cb)
2020-02-01T11:36:28.7532806+05:30 0HLT6RGRDOGF9:00000001 [INF] Route matched with "{action = \"GetUserDetails\", controller = \"Master\"}". Executing controller action with signature "LoginApi.Entities.Baseclasses.Response`1[LoginApi.Entities.UserLogin] GetUserDetails(LoginApi.Entities.UserLogin)" on controller "LoginApi.Controllers.MasterController" ("LoginApi"). (122b2fdf)
2020-02-01T11:36:28.7545383+05:30 0HLT6RGRDOGF9:00000001 [INF] Executing action method "LoginApi.Controllers.MasterController.GetUserDetails (LoginApi)" - Validation state: Valid (dad538d7)
2020-02-01T11:36:28.8175584+05:30 0HLT6RGRDOGF9:00000001 [INF] Executed action method "LoginApi.Controllers.MasterController.GetUserDetails (LoginApi)", returned result "Microsoft.AspNetCore.Mvc.ObjectResult" in 62.9361ms. (50a9e262)
2020-02-01T11:36:28.8193833+05:30 0HLT6RGRDOGF9:00000001 [INF] Executing ObjectResult, writing value of type '"LoginApi.Entities.Baseclasses.Response`1[[LoginApi.Entities.UserLogin, LoginApi, Version=1.0.0.0, Culture=neutral, PublicKeyToken=null]]"'. (8a1b66c8)
2020-02-01T11:36:28.8196575+05:30 0HLT6RGRDOGF9:00000001 [INF] Executed action "LoginApi.Controllers.MasterController.GetUserDetails (LoginApi)" in 66.2447ms (afa2e885)
2020-02-01T11:36:28.8197409+05:30 0HLT6RGRDOGF9:00000001 [INF] Request finished in 67.1375ms 200 application/json; charset=utf-8 (791a596a)
2020-02-01T11:36:39.1581158+05:30 0HLT6RGRDOGF9:00000002 [INF] Request starting HTTP/1.1 POST http://localhost:7002/Login-Api/Master/GetUserDetails application/json; charset=UTF-8 205 (ca22a1cb)
2020-02-01T11:36:39.1592340+05:30 0HLT6RGRDOGF9:00000002 [INF] Route matched with "{action = \"GetUserDetails\", controller = \"Master\"}". Executing controller action with signature "LoginApi.Entities.Baseclasses.Response`1[LoginApi.Entities.UserLogin] GetUserDetails(LoginApi.Entities.UserLogin)" on controller "LoginApi.Controllers.MasterController" ("LoginApi"). (122b2fdf)
2020-02-01T11:36:39.1604391+05:30 0HLT6RGRDOGF9:00000002 [INF] Executing action method "LoginApi.Controllers.MasterController.GetUserDetails (LoginApi)" - Validation state: Valid (dad538d7)
2020-02-01T11:36:39.1653284+05:30 0HLT6RGRDOGF9:00000002 [INF] Executed action method "LoginApi.Controllers.MasterController.GetUserDetails (LoginApi)", returned result "Microsoft.AspNetCore.Mvc.ObjectResult" in 4.6678ms. (50a9e262)
2020-02-01T11:36:39.1657151+05:30 0HLT6RGRDOGF9:00000002 [INF] Executing ObjectResult, writing value of type '"LoginApi.Entities.Baseclasses.Response`1[[LoginApi.Entities.UserLogin, LoginApi, Version=1.0.0.0, Culture=neutral, PublicKeyToken=null]]"'. (8a1b66c8)
2020-02-01T11:36:39.1661288+05:30 0HLT6RGRDOGF9:00000002 [INF] Executed action "LoginApi.Controllers.MasterController.GetUserDetails (LoginApi)" in 6.6394ms (afa2e885)
2020-02-01T11:36:39.1662809+05:30 0HLT6RGRDOGF9:00000002 [INF] Request finished in 8.1595ms 200 application/json; charset=utf-8 (791a596a)
2020-02-01T11:47:28.7395490+05:30 0HLT6RGRDOGFA:00000001 [INF] Request starting HTTP/1.1 POST http://localhost:7002/Login-Api/Master/GetUserDetails application/json; charset=UTF-8 190 (ca22a1cb)
2020-02-01T11:47:28.7399065+05:30 0HLT6RGRDOGFA:00000001 [INF] Route matched with "{action = \"GetUserDetails\", controller = \"Master\"}". Executing controller action with signature "LoginApi.Entities.Baseclasses.Response`1[LoginApi.Entities.UserLogin] GetUserDetails(LoginApi.Entities.UserLogin)" on controller "LoginApi.Controllers.MasterController" ("LoginApi"). (122b2fdf)
2020-02-01T11:47:28.7426562+05:30 0HLT6RGRDOGFA:00000001 [INF] Executing action method "LoginApi.Controllers.MasterController.GetUserDetails (LoginApi)" - Validation state: Valid (dad538d7)
2020-02-01T11:47:28.7957494+05:30 0HLT6RGRDOGFA:00000001 [INF] Executed action method "LoginApi.Controllers.MasterController.GetUserDetails (LoginApi)", returned result "Microsoft.AspNetCore.Mvc.ObjectResult" in 52.7876ms. (50a9e262)
2020-02-01T11:47:28.7958538+05:30 0HLT6RGRDOGFA:00000001 [INF] Executing ObjectResult, writing value of type '"LoginApi.Entities.Baseclasses.Response`1[[LoginApi.Entities.UserLogin, LoginApi, Version=1.0.0.0, Culture=neutral, PublicKeyToken=null]]"'. (8a1b66c8)
2020-02-01T11:47:28.7960331+05:30 0HLT6RGRDOGFA:00000001 [INF] Executed action "LoginApi.Controllers.MasterController.GetUserDetails (LoginApi)" in 55.6733ms (afa2e885)
2020-02-01T11:47:28.7961029+05:30 0HLT6RGRDOGFA:00000001 [INF] Request finished in 56.699ms 200 application/json; charset=utf-8 (791a596a)
2020-02-01T11:50:36.5006631+05:30 0HLT6RGRDOGFB:00000001 [INF] Request starting HTTP/1.1 GET http://localhost:7002/Login-Api/Master/GetProductList  0 (ca22a1cb)
2020-02-01T11:50:36.5009764+05:30 0HLT6RGRDOGFB:00000001 [INF] Route matched with "{action = \"GetProductList\", controller = \"Master\"}". Executing controller action with signature "System.Collections.Generic.List`1[LoginApi.Entities.Product] GetProductList()" on controller "LoginApi.Controllers.MasterController" ("LoginApi"). (122b2fdf)
2020-02-01T11:50:36.5011281+05:30 0HLT6RGRDOGFB:00000001 [INF] Executing action method "LoginApi.Controllers.MasterController.GetProductList (LoginApi)" - Validation state: Valid (dad538d7)
2020-02-01T11:50:36.5049202+05:30 0HLT6RGRDOGFB:00000001 [INF] Executed action method "LoginApi.Controllers.MasterController.GetProductList (LoginApi)", returned result "Microsoft.AspNetCore.Mvc.ObjectResult" in 3.7055ms. (50a9e262)
2020-02-01T11:50:36.5050533+05:30 0HLT6RGRDOGFB:00000001 [INF] Executing ObjectResult, writing value of type '"System.Collections.Generic.List`1[[LoginApi.Entities.Product, LoginApi, Version=1.0.0.0, Culture=neutral, PublicKeyToken=null]]"'. (8a1b66c8)
2020-02-01T11:50:36.5053520+05:30 0HLT6RGRDOGFB:00000001 [INF] Executed action "LoginApi.Controllers.MasterController.GetProductList (LoginApi)" in 4.3152ms (afa2e885)
2020-02-01T11:50:36.5054313+05:30 0HLT6RGRDOGFB:00000001 [INF] Request finished in 4.9139ms 200 application/json; charset=utf-8 (791a596a)
2020-02-01T11:50:41.8243735+05:30 0HLT6RGRDOGFB:00000002 [INF] Request starting HTTP/1.1 GET http://localhost:7002/Login-Api/Master/GetProductList  0 (ca22a1cb)
2020-02-01T11:50:41.8245600+05:30 0HLT6RGRDOGFB:00000002 [INF] Route matched with "{action = \"GetProductList\", controller = \"Master\"}". Executing controller action with signature "System.Collections.Generic.List`1[LoginApi.Entities.Product] GetProductList()" on controller "LoginApi.Controllers.MasterController" ("LoginApi"). (122b2fdf)
2020-02-01T11:50:41.8246417+05:30 0HLT6RGRDOGFB:00000002 [INF] Executing action method "LoginApi.Controllers.MasterController.GetProductList (LoginApi)" - Validation state: Valid (dad538d7)
2020-02-01T11:50:41.8291705+05:30 0HLT6RGRDOGFB:00000002 [INF] Executed action method "LoginApi.Controllers.MasterController.GetProductList (LoginApi)", returned result "Microsoft.AspNetCore.Mvc.ObjectResult" in 4.4117ms. (50a9e262)
2020-02-01T11:50:41.8292862+05:30 0HLT6RGRDOGFB:00000002 [INF] Executing ObjectResult, writing value of type '"System.Collections.Generic.List`1[[LoginApi.Entities.Product, LoginApi, Version=1.0.0.0, Culture=neutral, PublicKeyToken=null]]"'. (8a1b66c8)
2020-02-01T11:50:41.8294675+05:30 0HLT6RGRDOGFB:00000002 [INF] Executed action "LoginApi.Controllers.MasterController.GetProductList (LoginApi)" in 4.8576ms (afa2e885)
2020-02-01T11:50:41.8295188+05:30 0HLT6RGRDOGFB:00000002 [INF] Request finished in 5.2582ms 200 application/json; charset=utf-8 (791a596a)
2020-02-01T11:50:55.6137600+05:30 0HLT6RGRDOGFB:00000003 [INF] Request starting HTTP/1.1 GET http://localhost:7002/Login-Api/Master/GetProductList  0 (ca22a1cb)
2020-02-01T11:50:55.6141343+05:30 0HLT6RGRDOGFB:00000003 [INF] Route matched with "{action = \"GetProductList\", controller = \"Master\"}". Executing controller action with signature "System.Collections.Generic.List`1[LoginApi.Entities.Product] GetProductList()" on controller "LoginApi.Controllers.MasterController" ("LoginApi"). (122b2fdf)
2020-02-01T11:50:55.6144610+05:30 0HLT6RGRDOGFB:00000003 [INF] Executing action method "LoginApi.Controllers.MasterController.GetProductList (LoginApi)" - Validation state: Valid (dad538d7)
2020-02-01T11:50:55.6181814+05:30 0HLT6RGRDOGFB:00000003 [INF] Executed action method "LoginApi.Controllers.MasterController.GetProductList (LoginApi)", returned result "Microsoft.AspNetCore.Mvc.ObjectResult" in 3.5825ms. (50a9e262)
2020-02-01T11:50:55.6182961+05:30 0HLT6RGRDOGFB:00000003 [INF] Executing ObjectResult, writing value of type '"System.Collections.Generic.List`1[[LoginApi.Entities.Product, LoginApi, Version=1.0.0.0, Culture=neutral, PublicKeyToken=null]]"'. (8a1b66c8)
2020-02-01T11:50:55.6185703+05:30 0HLT6RGRDOGFB:00000003 [INF] Executed action "LoginApi.Controllers.MasterController.GetProductList (LoginApi)" in 4.2135ms (afa2e885)
2020-02-01T11:50:55.6186808+05:30 0HLT6RGRDOGFB:00000003 [INF] Request finished in 4.9707ms 200 application/json; charset=utf-8 (791a596a)
2020-02-01T11:52:19.2801832+05:30 0HLT6RGRDOGFB:00000004 [INF] Request starting HTTP/1.1 POST http://localhost:7002/Login-Api/Master/GetUserDetails application/json; charset=UTF-8 190 (ca22a1cb)
2020-02-01T11:52:19.2804596+05:30 0HLT6RGRDOGFB:00000004 [INF] Route matched with "{action = \"GetUserDetails\", controller = \"Master\"}". Executing controller action with signature "LoginApi.Entities.Baseclasses.Response`1[LoginApi.Entities.UserLogin] GetUserDetails(LoginApi.Entities.UserLogin)" on controller "LoginApi.Controllers.MasterController" ("LoginApi"). (122b2fdf)
2020-02-01T11:52:19.2809417+05:30 0HLT6RGRDOGFB:00000004 [INF] Executing action method "LoginApi.Controllers.MasterController.GetUserDetails (LoginApi)" - Validation state: Valid (dad538d7)
2020-02-01T11:52:19.2864158+05:30 0HLT6RGRDOGFB:00000004 [INF] Executed action method "LoginApi.Controllers.MasterController.GetUserDetails (LoginApi)", returned result "Microsoft.AspNetCore.Mvc.ObjectResult" in 5.2944ms. (50a9e262)
2020-02-01T11:52:19.2870267+05:30 0HLT6RGRDOGFB:00000004 [INF] Executing ObjectResult, writing value of type '"LoginApi.Entities.Baseclasses.Response`1[[LoginApi.Entities.UserLogin, LoginApi, Version=1.0.0.0, Culture=neutral, PublicKeyToken=null]]"'. (8a1b66c8)
2020-02-01T11:52:19.2874372+05:30 0HLT6RGRDOGFB:00000004 [INF] Executed action "LoginApi.Controllers.MasterController.GetUserDetails (LoginApi)" in 6.8001ms (afa2e885)
2020-02-01T11:52:19.2889358+05:30 0HLT6RGRDOGFB:00000004 [INF] Request finished in 8.3686ms 200 application/json; charset=utf-8 (791a596a)
2020-02-01T11:52:25.7520589+05:30 0HLT6RGRDOGFB:00000005 [INF] Request starting HTTP/1.1 POST http://localhost:7002/Login-Api/Master/GetUserDetails application/json; charset=UTF-8 205 (ca22a1cb)
2020-02-01T11:52:25.7531484+05:30 0HLT6RGRDOGFB:00000005 [INF] Route matched with "{action = \"GetUserDetails\", controller = \"Master\"}". Executing controller action with signature "LoginApi.Entities.Baseclasses.Response`1[LoginApi.Entities.UserLogin] GetUserDetails(LoginApi.Entities.UserLogin)" on controller "LoginApi.Controllers.MasterController" ("LoginApi"). (122b2fdf)
2020-02-01T11:52:25.7539691+05:30 0HLT6RGRDOGFB:00000005 [INF] Executing action method "LoginApi.Controllers.MasterController.GetUserDetails (LoginApi)" - Validation state: Valid (dad538d7)
2020-02-01T11:52:25.7586069+05:30 0HLT6RGRDOGFB:00000005 [INF] Executed action method "LoginApi.Controllers.MasterController.GetUserDetails (LoginApi)", returned result "Microsoft.AspNetCore.Mvc.ObjectResult" in 4.5032ms. (50a9e262)
2020-02-01T11:52:25.7587270+05:30 0HLT6RGRDOGFB:00000005 [INF] Executing ObjectResult, writing value of type '"LoginApi.Entities.Baseclasses.Response`1[[LoginApi.Entities.UserLogin, LoginApi, Version=1.0.0.0, Culture=neutral, PublicKeyToken=null]]"'. (8a1b66c8)
2020-02-01T11:52:25.7589012+05:30 0HLT6RGRDOGFB:00000005 [INF] Executed action "LoginApi.Controllers.MasterController.GetUserDetails (LoginApi)" in 5.5311ms (afa2e885)
2020-02-01T11:52:25.7589656+05:30 0HLT6RGRDOGFB:00000005 [INF] Request finished in 7.7529ms 200 application/json; charset=utf-8 (791a596a)
2020-02-01T13:23:49.4213184+05:30 0HLT6RGRDOGFC:00000001 [INF] Request starting HTTP/1.1 POST http://localhost:7002/Login-Api/Master/GetUserDetails application/json; charset=utf-8  (ca22a1cb)
2020-02-01T13:23:49.4225147+05:30 0HLT6RGRDOGFC:00000001 [INF] Route matched with "{action = \"GetUserDetails\", controller = \"Master\"}". Executing controller action with signature "LoginApi.Entities.Baseclasses.Response`1[LoginApi.Entities.UserLogin] GetUserDetails(LoginApi.Entities.UserLogin)" on controller "LoginApi.Controllers.MasterController" ("LoginApi"). (122b2fdf)
2020-02-01T13:23:49.4244468+05:30 0HLT6RGRDOGFC:00000001 [INF] Executing action method "LoginApi.Controllers.MasterController.GetUserDetails (LoginApi)" - Validation state: Valid (dad538d7)
2020-02-01T13:23:49.5275320+05:30 0HLT6RGRDOGFC:00000001 [INF] Executed action method "LoginApi.Controllers.MasterController.GetUserDetails (LoginApi)", returned result "Microsoft.AspNetCore.Mvc.ObjectResult" in 102.8642ms. (50a9e262)
2020-02-01T13:23:49.5277131+05:30 0HLT6RGRDOGFC:00000001 [INF] Executing ObjectResult, writing value of type '"LoginApi.Entities.Baseclasses.Response`1[[LoginApi.Entities.UserLogin, LoginApi, Version=1.0.0.0, Culture=neutral, PublicKeyToken=null]]"'. (8a1b66c8)
2020-02-01T13:23:49.5294481+05:30 0HLT6RGRDOGFC:00000001 [INF] Executed action "LoginApi.Controllers.MasterController.GetUserDetails (LoginApi)" in 106.8113ms (afa2e885)
2020-02-01T13:23:49.5296154+05:30 0HLT6RGRDOGFC:00000001 [INF] Request finished in 108.95ms 200 application/json; charset=utf-8 (791a596a)
2020-02-01T13:23:49.8830467+05:30 0HLT6RGRDOGFC:00000002 [INF] Request starting HTTP/1.1 GET http://localhost:7002/Login-Api/Report/GetProductCustomerCount  0 (ca22a1cb)
2020-02-01T13:23:49.8840279+05:30 0HLT6RGRDOGFC:00000002 [INF] Route matched with "{action = \"GetProductCustomerCount\", controller = \"Report\"}". Executing controller action with signature "System.Collections.Generic.List`1[LoginApi.Entities.ReportCarrier] GetProductCustomerCount()" on controller "LoginApi.Controllers.ReportController" ("LoginApi"). (122b2fdf)
2020-02-01T13:23:49.8844900+05:30 0HLT6RGRDOGFC:00000002 [INF] Executing action method "LoginApi.Controllers.ReportController.GetProductCustomerCount (LoginApi)" - Validation state: Valid (dad538d7)
2020-02-01T13:23:49.8883187+05:30 0HLT6RGRDOGFC:00000002 [INF] Executed action method "LoginApi.Controllers.ReportController.GetProductCustomerCount (LoginApi)", returned result "Microsoft.AspNetCore.Mvc.ObjectResult" in 3.5294ms. (50a9e262)
2020-02-01T13:23:49.8886674+05:30 0HLT6RGRDOGFC:00000002 [INF] Executing ObjectResult, writing value of type '"System.Collections.Generic.List`1[[LoginApi.Entities.ReportCarrier, LoginApi, Version=1.0.0.0, Culture=neutral, PublicKeyToken=null]]"'. (8a1b66c8)
2020-02-01T13:23:49.8892489+05:30 0HLT6RGRDOGFC:00000002 [INF] Executed action "LoginApi.Controllers.ReportController.GetProductCustomerCount (LoginApi)" in 5.0369ms (afa2e885)
2020-02-01T13:23:49.8893280+05:30 0HLT6RGRDOGFC:00000002 [INF] Request finished in 6.5238ms 200 application/json; charset=utf-8 (791a596a)
2020-02-01T13:23:51.9842529+05:30 0HLT6RGRDOGFC:00000003 [INF] Request starting HTTP/1.1 GET http://localhost:7002/Login-Api/Master/GetProductList  0 (ca22a1cb)
2020-02-01T13:23:51.9845413+05:30 0HLT6RGRDOGFC:00000003 [INF] Route matched with "{action = \"GetProductList\", controller = \"Master\"}". Executing controller action with signature "System.Collections.Generic.List`1[LoginApi.Entities.Product] GetProductList()" on controller "LoginApi.Controllers.MasterController" ("LoginApi"). (122b2fdf)
2020-02-01T13:23:51.9846454+05:30 0HLT6RGRDOGFC:00000003 [INF] Executing action method "LoginApi.Controllers.MasterController.GetProductList (LoginApi)" - Validation state: Valid (dad538d7)
2020-02-01T13:23:51.9887955+05:30 0HLT6RGRDOGFC:00000003 [INF] Executed action method "LoginApi.Controllers.MasterController.GetProductList (LoginApi)", returned result "Microsoft.AspNetCore.Mvc.ObjectResult" in 4.0684ms. (50a9e262)
2020-02-01T13:23:51.9889493+05:30 0HLT6RGRDOGFC:00000003 [INF] Executing ObjectResult, writing value of type '"System.Collections.Generic.List`1[[LoginApi.Entities.Product, LoginApi, Version=1.0.0.0, Culture=neutral, PublicKeyToken=null]]"'. (8a1b66c8)
2020-02-01T13:23:51.9893939+05:30 0HLT6RGRDOGFC:00000003 [INF] Executed action "LoginApi.Controllers.MasterController.GetProductList (LoginApi)" in 4.722ms (afa2e885)
2020-02-01T13:23:51.9895341+05:30 0HLT6RGRDOGFC:00000003 [INF] Request finished in 5.341ms 200 application/json; charset=utf-8 (791a596a)
2020-02-01T13:23:52.0051748+05:30 0HLT6RGRDOGFC:00000004 [INF] Request starting HTTP/1.1 GET http://localhost:7002/Login-Api/Report/GetProductCustomerCount  0 (ca22a1cb)
2020-02-01T13:23:52.0053948+05:30 0HLT6RGRDOGFC:00000004 [INF] Route matched with "{action = \"GetProductCustomerCount\", controller = \"Report\"}". Executing controller action with signature "System.Collections.Generic.List`1[LoginApi.Entities.ReportCarrier] GetProductCustomerCount()" on controller "LoginApi.Controllers.ReportController" ("LoginApi"). (122b2fdf)
2020-02-01T13:23:52.0054741+05:30 0HLT6RGRDOGFC:00000004 [INF] Executing action method "LoginApi.Controllers.ReportController.GetProductCustomerCount (LoginApi)" - Validation state: Valid (dad538d7)
2020-02-01T13:23:52.0085846+05:30 0HLT6RGRDOGFC:00000004 [INF] Executed action method "LoginApi.Controllers.ReportController.GetProductCustomerCount (LoginApi)", returned result "Microsoft.AspNetCore.Mvc.ObjectResult" in 2.8672ms. (50a9e262)
2020-02-01T13:23:52.0087579+05:30 0HLT6RGRDOGFC:00000004 [INF] Executing ObjectResult, writing value of type '"System.Collections.Generic.List`1[[LoginApi.Entities.ReportCarrier, LoginApi, Version=1.0.0.0, Culture=neutral, PublicKeyToken=null]]"'. (8a1b66c8)
2020-02-01T13:23:52.0089721+05:30 0HLT6RGRDOGFC:00000004 [INF] Executed action "LoginApi.Controllers.ReportController.GetProductCustomerCount (LoginApi)" in 3.5164ms (afa2e885)
2020-02-01T13:23:52.0090478+05:30 0HLT6RGRDOGFC:00000004 [INF] Request finished in 3.9135ms 200 application/json; charset=utf-8 (791a596a)
2020-02-01T13:23:53.8081167+05:30 0HLT6RGRDOGFC:00000005 [INF] Request starting HTTP/1.1 GET http://localhost:7002/Login-Api/Master/GetCountryList?Employee=0  0 (ca22a1cb)
2020-02-01T13:23:53.8195046+05:30 0HLT6RGRDOGFC:00000005 [INF] Route matched with "{action = \"GetCountryList\", controller = \"Master\"}". Executing controller action with signature "System.Collections.Generic.List`1[LoginApi.Entities.Country] GetCountryList()" on controller "LoginApi.Controllers.MasterController" ("LoginApi"). (122b2fdf)
2020-02-01T13:23:53.8205983+05:30 0HLT6RGRDOGFC:00000005 [INF] Executing action method "LoginApi.Controllers.MasterController.GetCountryList (LoginApi)" - Validation state: Valid (dad538d7)
2020-02-01T13:23:53.8418565+05:30 0HLT6RGRDOGFC:00000005 [INF] Executed action method "LoginApi.Controllers.MasterController.GetCountryList (LoginApi)", returned result "Microsoft.AspNetCore.Mvc.ObjectResult" in 20.6745ms. (50a9e262)
2020-02-01T13:23:53.8420638+05:30 0HLT6RGRDOGFC:00000005 [INF] Executing ObjectResult, writing value of type '"System.Collections.Generic.List`1[[LoginApi.Entities.Country, LoginApi, Version=1.0.0.0, Culture=neutral, PublicKeyToken=null]]"'. (8a1b66c8)
2020-02-01T13:23:53.8585551+05:30 0HLT6RGRDOGFC:00000005 [INF] Executed action "LoginApi.Controllers.MasterController.GetCountryList (LoginApi)" in 38.1337ms (afa2e885)
2020-02-01T13:23:53.8586818+05:30 0HLT6RGRDOGFC:00000005 [INF] Request finished in 51.2862ms 200 application/json; charset=utf-8 (791a596a)
2020-02-01T13:45:16.4879081+05:30 0HLT6RGRDOGFD:00000001 [INF] Request starting HTTP/1.1 GET http://localhost:7002/Login-Api/Master/GetCityList  0 (ca22a1cb)
2020-02-01T13:45:16.4923033+05:30 0HLT6RGRDOGFD:00000001 [INF] Route matched with "{action = \"GetCityList\", controller = \"Master\"}". Executing controller action with signature "System.Collections.Generic.List`1[LoginApi.Entities.City] GetCityList()" on controller "LoginApi.Controllers.MasterController" ("LoginApi"). (122b2fdf)
2020-02-01T13:45:16.4928666+05:30 0HLT6RGRDOGFD:00000001 [INF] Executing action method "LoginApi.Controllers.MasterController.GetCityList (LoginApi)" - Validation state: Valid (dad538d7)
2020-02-01T13:45:16.6030522+05:30 0HLT6RGRDOGFD:00000001 [INF] Executed action method "LoginApi.Controllers.MasterController.GetCityList (LoginApi)", returned result "Microsoft.AspNetCore.Mvc.ObjectResult" in 109.6893ms. (50a9e262)
2020-02-01T13:45:16.6032162+05:30 0HLT6RGRDOGFD:00000001 [INF] Executing ObjectResult, writing value of type '"System.Collections.Generic.List`1[[LoginApi.Entities.City, LoginApi, Version=1.0.0.0, Culture=neutral, PublicKeyToken=null]]"'. (8a1b66c8)
2020-02-01T13:45:16.6091448+05:30 0HLT6RGRDOGFD:00000001 [INF] Executed action "LoginApi.Controllers.MasterController.GetCityList (LoginApi)" in 116.5025ms (afa2e885)
2020-02-01T13:45:16.6092741+05:30 0HLT6RGRDOGFD:00000001 [INF] Request finished in 121.7004ms 200 application/json; charset=utf-8 (791a596a)
2020-02-01T13:45:16.6261414+05:30 0HLT6RGRDOGFD:00000002 [INF] Request starting HTTP/1.1 GET http://localhost:7002/Login-Api/Master/GetCountryList  0 (ca22a1cb)
2020-02-01T13:45:16.6264141+05:30 0HLT6RGRDOGFD:00000002 [INF] Route matched with "{action = \"GetCountryList\", controller = \"Master\"}". Executing controller action with signature "System.Collections.Generic.List`1[LoginApi.Entities.Country] GetCountryList()" on controller "LoginApi.Controllers.MasterController" ("LoginApi"). (122b2fdf)
2020-02-01T13:45:16.6266043+05:30 0HLT6RGRDOGFD:00000002 [INF] Executing action method "LoginApi.Controllers.MasterController.GetCountryList (LoginApi)" - Validation state: Valid (dad538d7)
2020-02-01T13:45:16.6304117+05:30 0HLT6RGRDOGFD:00000002 [INF] Executed action method "LoginApi.Controllers.MasterController.GetCountryList (LoginApi)", returned result "Microsoft.AspNetCore.Mvc.ObjectResult" in 3.6956ms. (50a9e262)
2020-02-01T13:45:16.6305320+05:30 0HLT6RGRDOGFD:00000002 [INF] Executing ObjectResult, writing value of type '"System.Collections.Generic.List`1[[LoginApi.Entities.Country, LoginApi, Version=1.0.0.0, Culture=neutral, PublicKeyToken=null]]"'. (8a1b66c8)
2020-02-01T13:45:16.6319888+05:30 0HLT6RGRDOGFD:00000002 [INF] Executed action "LoginApi.Controllers.MasterController.GetCountryList (LoginApi)" in 5.4182ms (afa2e885)
2020-02-01T13:45:16.6321848+05:30 0HLT6RGRDOGFD:00000002 [INF] Request finished in 6.095ms 200 application/json; charset=utf-8 (791a596a)
2020-02-01T13:45:18.4033778+05:30 0HLT6RGRDOGFD:00000003 [INF] Request starting HTTP/1.1 GET http://localhost:7002/Login-Api/Master/GetCityList  0 (ca22a1cb)
2020-02-01T13:45:18.4037168+05:30 0HLT6RGRDOGFD:00000003 [INF] Route matched with "{action = \"GetCityList\", controller = \"Master\"}". Executing controller action with signature "System.Collections.Generic.List`1[LoginApi.Entities.City] GetCityList()" on controller "LoginApi.Controllers.MasterController" ("LoginApi"). (122b2fdf)
2020-02-01T13:45:18.4038213+05:30 0HLT6RGRDOGFD:00000003 [INF] Executing action method "LoginApi.Controllers.MasterController.GetCityList (LoginApi)" - Validation state: Valid (dad538d7)
2020-02-01T13:45:18.4079665+05:30 0HLT6RGRDOGFD:00000003 [INF] Executed action method "LoginApi.Controllers.MasterController.GetCityList (LoginApi)", returned result "Microsoft.AspNetCore.Mvc.ObjectResult" in 4.0407ms. (50a9e262)
2020-02-01T13:45:18.4080898+05:30 0HLT6RGRDOGFD:00000003 [INF] Executing ObjectResult, writing value of type '"System.Collections.Generic.List`1[[LoginApi.Entities.City, LoginApi, Version=1.0.0.0, Culture=neutral, PublicKeyToken=null]]"'. (8a1b66c8)
2020-02-01T13:45:18.4083616+05:30 0HLT6RGRDOGFD:00000003 [INF] Executed action "LoginApi.Controllers.MasterController.GetCityList (LoginApi)" in 4.5728ms (afa2e885)
2020-02-01T13:45:18.4084253+05:30 0HLT6RGRDOGFD:00000003 [INF] Request finished in 5.1534ms 200 application/json; charset=utf-8 (791a596a)
2020-02-01T13:45:18.4230355+05:30 0HLT6RGRDOGFD:00000004 [INF] Request starting HTTP/1.1 GET http://localhost:7002/Login-Api/Master/GetCountryList  0 (ca22a1cb)
2020-02-01T13:45:18.4231760+05:30 0HLT6RGRDOGFD:00000004 [INF] Route matched with "{action = \"GetCountryList\", controller = \"Master\"}". Executing controller action with signature "System.Collections.Generic.List`1[LoginApi.Entities.Country] GetCountryList()" on controller "LoginApi.Controllers.MasterController" ("LoginApi"). (122b2fdf)
2020-02-01T13:45:18.4232438+05:30 0HLT6RGRDOGFD:00000004 [INF] Executing action method "LoginApi.Controllers.MasterController.GetCountryList (LoginApi)" - Validation state: Valid (dad538d7)
2020-02-01T13:45:18.4265693+05:30 0HLT6RGRDOGFD:00000004 [INF] Executed action method "LoginApi.Controllers.MasterController.GetCountryList (LoginApi)", returned result "Microsoft.AspNetCore.Mvc.ObjectResult" in 3.217ms. (50a9e262)
2020-02-01T13:45:18.4266604+05:30 0HLT6RGRDOGFD:00000004 [INF] Executing ObjectResult, writing value of type '"System.Collections.Generic.List`1[[LoginApi.Entities.Country, LoginApi, Version=1.0.0.0, Culture=neutral, PublicKeyToken=null]]"'. (8a1b66c8)
2020-02-01T13:45:18.4271637+05:30 0HLT6RGRDOGFD:00000004 [INF] Executed action "LoginApi.Controllers.MasterController.GetCountryList (LoginApi)" in 3.9296ms (afa2e885)
2020-02-01T13:45:18.4272174+05:30 0HLT6RGRDOGFD:00000004 [INF] Request finished in 4.2199ms 200 application/json; charset=utf-8 (791a596a)
