
{
    "region" : "ap-south-1",
    "profile" : "cppdev",
    "configuration" : "Release",
    "tag"           : "contentmanageapiaws:v4",
    "docker-build-working-dir" : "",
    "task-definition-name"     : "ContentManageApi",
    "task-definition-network-mode" : "bridge",
    "task-definition-task-role"    : "arn:aws:iam::439046427038:role/ecsTaskExecutionRole",
    "container-name"               : "ContentManageApi",
    "container-memory-hard-limit"  : 1024,
    "container-memory-soft-limit"  : 1024,
    "container-port-mapping"       : "7001:80,32790:443",
    "container-environment-variables" : "\"ASPNETCORE_ENVIRONMENT\"=\"Production\"",
    "cluster"                         : "cpp-card-api",
    "launch-type"                     : "EC2",
    "task-count"                      : 1,
    "placement-strategy"              : "spread=attribute:ecs.availability-zone,spread=instanceId",
    "vstoolkit-deployment-mode"       : "PushOnly"
}